{
  "ios": {
    "debug": {
      "codeSignIdentity": "iPhone Developer",
      "developmentTeam": "xxx",
      "packageType": "development",
      "provisioningProfile": "Development_xxx.mobileprovision",
      "buildFlag": [
        "-UseModernBuildSystem=0"
      ]
    },
    "release": {
      "codeSignIdentity": "iPhone Distribution",
      "developmentTeam": "xxx",
      "packageType": "app-store",
      "provisioningProfile": "AppStore_xxx.mobileprovision",
      "buildFlag": [
        "-UseModernBuildSystem=0"
      ]
    }
  },
  "android": {
    "release": {
      "keystore": "xxx.jks",
      "storePassword": "xxx",
      "alias": "xxx",
      "password" : "xxx",
      "keystoreType": "jks"
    }
  }
}
