{
  "versionCode": "1.0",
  "appleId": "apps@andavis.de",
  "teamId": "ABQZURQUQT",
  "appIdentifier": "de.drin.myapp",
  "appIdentifierIos": "de.drin.myapp",
  "packageName": "myapp",
  "distributeGroup": "Andavis",
  "appCenterNameIOS": "MyApp-1",
  "appCenterNameAndroid": "MyApp",
  "keyStoreFileName": "myapp.jks",
  "keyStorePassword": "12345678",
  "keyStoreAlias": "MyApp"
}
